src/tb/AXI_main_tb.vcd
$date
	Fri Jan 02 15:18:25 2026
$end
$version
	Icarus Verilog
$end
$timescale
	1s
$end
$scope module AXI_main_tb $end
$var wire 1 ! wready $end
$var wire 1 " rvalid $end
$var wire 2 # rresp [1:0] $end
$var wire 1 $ rlast $end
$var wire 64 % rdata [63:0] $end
$var wire 1 & bvalid $end
$var wire 2 ' bresp [1:0] $end
$var wire 1 ( awready $end
$var wire 1 ) arready $end
$var reg 1 * a_clk $end
$var reg 1 + a_rst_n $end
$var reg 32 , araddr [31:0] $end
$var reg 2 - arburst [1:0] $end
$var reg 4 . arlen [3:0] $end
$var reg 3 / arsize [2:0] $end
$var reg 1 0 arvalid $end
$var reg 32 1 awaddr [31:0] $end
$var reg 2 2 awburst [1:0] $end
$var reg 4 3 awlen [3:0] $end
$var reg 3 4 awsize [2:0] $end
$var reg 1 5 awvalid $end
$var reg 1 6 bready $end
$var reg 1 7 rready $end
$var reg 64 8 wdata [63:0] $end
$var reg 1 9 wlast $end
$var reg 8 : wstrb [7:0] $end
$var reg 1 ; wvalid $end
$scope module uut $end
$var wire 13 < Adres_probki_FIR [12:0] $end
$var wire 1 * a_clk $end
$var wire 1 + a_rst_n $end
$var wire 32 = araddr [31:0] $end
$var wire 2 > arburst [1:0] $end
$var wire 4 ? arlen [3:0] $end
$var wire 3 @ arsize [2:0] $end
$var wire 1 0 arvalid $end
$var wire 32 A awaddr [31:0] $end
$var wire 2 B awburst [1:0] $end
$var wire 4 C awlen [3:0] $end
$var wire 3 D awsize [2:0] $end
$var wire 1 5 awvalid $end
$var wire 1 6 bready $end
$var wire 21 E in_FIR_probka_wynik [20:0] $end
$var wire 1 F in_FSM_wyj_wr $end
$var wire 1 7 rready $end
$var wire 1 G sel_FSM_mux_wej $end
$var wire 1 H sel_FSM_mux_wyj $end
$var wire 64 I wdata [63:0] $end
$var wire 1 9 wlast $end
$var wire 8 J wstrb [7:0] $end
$var wire 1 ; wvalid $end
$var wire 1 ! wready $end
$var wire 2 K state_w_out [1:0] $end
$var wire 1 " rvalid $end
$var wire 2 L rresp [1:0] $end
$var wire 1 $ rlast $end
$var wire 64 M rdata [63:0] $end
$var wire 13 N probka_address_out [12:0] $end
$var wire 13 O probka_address_in [12:0] $end
$var wire 1 & bvalid $end
$var wire 2 P bresp [1:0] $end
$var wire 1 Q axi_wr $end
$var wire 16 R axi_probka [15:0] $end
$var wire 16 S axi_data_out [15:0] $end
$var wire 21 T axi_data_in [20:0] $end
$var wire 13 U axi_adres_zapisu [12:0] $end
$var wire 13 V axi_address_odczytu [12:0] $end
$var wire 1 ( awready $end
$var wire 1 ) arready $end
$var parameter 32 W Address_size_out $end
$var parameter 32 X Address_size_out2 $end
$var parameter 32 Y Data_size_in $end
$var parameter 32 Z Data_size_out $end
$var parameter 32 [ RAM_addr_WIDTH_wej $end
$var parameter 32 \ RAM_addr_WIDTH_wsp $end
$var parameter 32 ] RAM_addr_WIDTH_wyj $end
$var parameter 32 ^ RAM_data_WIDTH_wej $end
$var parameter 32 _ RAM_data_WIDTH_wsp $end
$var parameter 32 ` RAM_data_WIDTH_wyj $end
$var parameter 32 a Szerokosc_mux_wej $end
$var parameter 32 b Szerokosc_mux_wyj $end
$scope module RAM_wej $end
$var wire 1 * clk $end
$var wire 1 Q wr $end
$var wire 16 c data [15:0] $end
$var wire 13 d adres [12:0] $end
$var parameter 32 e ADDR_WIDTH $end
$var parameter 32 f DATA_WIDTH $end
$var reg 16 g data_out [15:0] $end
$scope begin Ram $end
$upscope $end
$upscope $end
$scope module RAM_wyj $end
$var wire 1 * clk $end
$var wire 21 h data [20:0] $end
$var wire 1 F wr $end
$var wire 13 i adres [12:0] $end
$var parameter 32 j ADDR_WIDTH $end
$var parameter 32 k DATA_WIDTH $end
$var reg 21 l data_out [20:0] $end
$scope begin Ram $end
$upscope $end
$upscope $end
$scope module mux_axi_wej $end
$var wire 13 m data_a [12:0] $end
$var wire 13 n data_out [12:0] $end
$var wire 1 G sel $end
$var wire 13 o data_b [12:0] $end
$var parameter 32 p WIDTH $end
$upscope $end
$scope module mux_axi_wyj $end
$var wire 13 q data_a [12:0] $end
$var wire 13 r data_out [12:0] $end
$var wire 1 H sel $end
$var wire 13 s data_b [12:0] $end
$var parameter 32 t WIDTH $end
$upscope $end
$scope module u_axi $end
$var wire 1 * a_clk $end
$var wire 21 u a_data_in [20:0] $end
$var wire 1 + a_rst_n $end
$var wire 32 v araddr [31:0] $end
$var wire 2 w arburst [1:0] $end
$var wire 4 x arlen [3:0] $end
$var wire 3 y arsize [2:0] $end
$var wire 1 0 arvalid $end
$var wire 32 z awaddr [31:0] $end
$var wire 2 { awburst [1:0] $end
$var wire 4 | awlen [3:0] $end
$var wire 3 } awsize [2:0] $end
$var wire 1 5 awvalid $end
$var wire 1 6 bready $end
$var wire 16 ~ probka [15:0] $end
$var wire 1 7 rready $end
$var wire 64 !" wdata [63:0] $end
$var wire 1 9 wlast $end
$var wire 8 "" wstrb [7:0] $end
$var wire 1 ; wvalid $end
$var parameter 32 #" address_out2_SIZE $end
$var parameter 32 $" address_out_SIZE $end
$var parameter 32 %" data_in_SIZE $end
$var parameter 32 &" data_out_SIZE $end
$var reg 13 '" a_address_rd [12:0] $end
$var reg 13 (" a_address_wr [12:0] $end
$var reg 16 )" a_data_out [15:0] $end
$var reg 1 Q a_wr $end
$var reg 14 *" araddr_reg [13:0] $end
$var reg 2 +" arbursts_reg [1:0] $end
$var reg 4 ," arlen_reg [3:0] $end
$var reg 1 ) arready $end
$var reg 3 -" arsize_reg [2:0] $end
$var reg 13 ." awaddr_reg [12:0] $end
$var reg 2 /" awburst_reg [1:0] $end
$var reg 4 0" awlen_reg [3:0] $end
$var reg 1 ( awready $end
$var reg 3 1" awsize_reg [2:0] $end
$var reg 2 2" bresp [1:0] $end
$var reg 1 & bvalid $end
$var reg 2 3" next_state_r [1:0] $end
$var reg 3 4" next_state_w [2:0] $end
$var reg 1 5" pierwszy_adres $end
$var reg 1 6" pierwszy_burst $end
$var reg 13 7" ram_addr_r [12:0] $end
$var reg 16 8" ram_data_r [15:0] $end
$var reg 1 9" ram_wr_r $end
$var reg 64 :" rdata [63:0] $end
$var reg 1 $ rlast $end
$var reg 2 ;" rresp [1:0] $end
$var reg 1 " rvalid $end
$var reg 2 <" state_r [1:0] $end
$var reg 3 =" state_w [2:0] $end
$var reg 2 >" state_w_out [1:0] $end
$var reg 1 ! wready $end
$upscope $end
$upscope $end
$scope begin $ivl_for_loop0 $end
$var integer 32 ?" i [31:0] $end
$upscope $end
$upscope $end
$enddefinitions $end
$comment Show the parameter values. $end
$dumpall
b10000 &"
b10101 %"
b1101 $"
b1101 #"
b1101 t
b1101 p
b10101 k
b1101 j
b10000 f
b1101 e
b1101 b
b1101 a
b10101 `
b10000 _
b10000 ^
b1101 ]
b1101 \
b1101 [
b10000 Z
b10101 Y
b1101 X
b1101 W
$end
#0
$dumpvars
b0 ?"
bx >"
b0 ="
b0 <"
b10 ;"
b0 :"
09"
b0 8"
b0 7"
06"
05"
b0 4"
b0 3"
b1 2"
b0 1"
b0 0"
b0 /"
b0 ."
b0 -"
b0 ,"
b0 +"
b0 *"
bx )"
b0 ("
b0 '"
b11 ""
b0 !"
bx ~
b1 }
b0 |
b1 {
b0 z
bx y
bx x
bx w
bx v
bx u
b0 s
b0 r
b0 q
b0 o
b0 n
b0 m
bx l
b0 i
b0 h
bx g
b0 d
bx c
b0 V
b0 U
bx T
bx S
bx R
xQ
b1 P
b0 O
b0 N
b0 M
b10 L
bx K
b11 J
b0 I
0H
0G
0F
b0 E
b1 D
b0 C
b1 B
b0 A
bx @
bx ?
bx >
bx =
b0 <
0;
b11 :
09
b0 8
x7
06
05
b1 4
b0 3
b1 2
b0 1
x0
bx /
bx .
bx -
bx ,
0+
1*
0)
0(
b1 '
0&
b0 %
0$
b10 #
0"
0!
$end
#5
0*
#10
1*
#15
0*
#20
b0 S
b0 c
b0 )"
0Q
1*
1+
bx 2
bx B
bx {
b0xx 4
b0xx D
b0xx }
b0x 3
b0x C
b0x |
b0xxxxxxxxxxxxxxxx 1
b0xxxxxxxxxxxxxxxx A
b0xxxxxxxxxxxxxxxx z
#25
0*
#30
1*
#35
0*
#40
1*
b1 2
b1 B
b1 {
b1 4
b1 D
b1 }
b10 3
b10 C
b10 |
b1010 1
b1010 A
b1010 z
#44
b1 4"
15
#45
0*
#50
b10 4"
1(
b1 /"
b1 1"
b11 0"
b1010 ."
b1 ="
1*
#55
0*
#60
1!
0(
b10 ="
1*
#61
1!
bx 2
bx B
bx {
b0xx 4
b0xx D
b0xx }
b0x 3
b0x C
b0x |
b0xxxxxxxxxxxxxxxx 1
b0xxxxxxxxxxxxxxxx A
b0xxxxxxxxxxxxxxxx z
05
#65
0*
#70
1*
#75
0*
#80
1*
#85
0*
#90
1*
#95
0*
#100
1*
#101
b1010101111001101 8"
b1010 7"
19"
1!
1;
b1010101111001101 8
b1010101111001101 I
b1010101111001101 !"
#105
0*
#110
1!
b1011 7"
b1010101111001101 8"
19"
b10 0"
b1011 ."
16"
15"
b1010101111001101 S
b1010101111001101 c
b1010101111001101 )"
b1010 O
b1010 d
b1010 n
b1010 U
b1010 o
b1010 ("
1Q
1*
#111
1!
b1011 7"
b1111110111011111 8"
19"
b1111110111011111 8
b1111110111011111 I
b1111110111011111 !"
#115
0*
#120
1!
b1100 7"
b1111110111011111 8"
19"
b1 0"
b1100 ."
b1111110111011111 S
b1111110111011111 c
b1111110111011111 )"
b1011 O
b1011 d
b1011 n
b1011 U
b1011 o
b1011 ("
1*
#121
1!
b1100 7"
b1111101011111010 8"
19"
19
b1111101011111010 8
b1111101011111010 I
b1111101011111010 !"
#125
0*
#130
b100 4"
1!
b1101 7"
b1111101011111010 8"
19"
b0 0"
b1101 ."
b1111101011111010 S
b1111101011111010 c
b1111101011111010 )"
b1100 O
b1100 d
b1100 n
b1100 U
b1100 o
b1100 ("
1*
#131
1!
b0 7"
b0 8"
09"
b100 4"
09
0;
#135
0*
#140
b0 '
b0 P
b0 2"
1&
0!
b0 S
b0 c
b0 )"
b0 O
b0 d
b0 n
b0 U
b0 o
b0 ("
0Q
b100 ="
1*
#145
0*
#150
1*
#151
b0 4"
1&
b0 '
b0 P
b0 2"
16
#155
0*
#160
0&
b1 '
b1 P
b1 2"
b0 ="
1*
#161
06
#165
0*
#170
1*
#175
0*
#180
1*
#185
0*
#190
1*
#195
0*
#200
1*
#205
0*
#210
1*
#215
0*
#220
1*
#221
b0 .
b0 ?
b0 x
b0 ,
b0 =
b0 v
00
07
#225
0*
#230
1*
#235
0*
#240
1*
#245
0*
#250
1*
#255
0*
#260
1*
#261
b10 .
b10 ?
b10 x
b1010 ,
b1010 =
b1010 v
#265
0*
#270
b1010 O
b1010 d
b1010 n
b1010 U
b1010 o
b1010 ("
1)
bx +"
bx -"
b10 ,"
b1010 *"
b1 <"
b10 3"
1*
10
#275
0*
#280
b0 #
b0 L
b0 ;"
1"
b1010101111001101 %
b1010101111001101 M
b1010101111001101 :"
0)
b1010101111001101 R
b1010101111001101 g
b1010101111001101 ~
b1010 O
b1010 d
b1010 n
b1010 U
b1010 o
b1010 ("
b10 <"
1*
#281
1"
b0 #
b0 L
b0 ;"
b1010101111001101 %
b1010101111001101 M
b1010101111001101 :"
b1010 O
b1010 d
b1010 n
b1010 U
b1010 o
b1010 ("
00
#285
0*
#290
b11 3"
1"
b0 #
b0 L
b0 ;"
b1010101111001101 %
b1010101111001101 M
b1010101111001101 :"
b1010 O
b1010 d
b1010 n
b1010 U
b1010 o
b1010 ("
17
1*
#295
0*
#300
b10 3"
0"
b10 #
b10 L
b10 ;"
b0 %
b0 M
b0 :"
07
b1011 O
b1011 d
b1011 n
b1011 U
b1011 o
b1011 ("
b1 ,"
b1011 *"
b11 <"
b1 ?"
1*
#305
0*
#310
b11 3"
17
b0 #
b0 L
b0 ;"
1"
b1111110111011111 %
b1111110111011111 M
b1111110111011111 :"
b1111110111011111 R
b1111110111011111 g
b1111110111011111 ~
b10 <"
b1011 O
b1011 d
b1011 n
b1011 U
b1011 o
b1011 ("
1*
#315
0*
#320
b10 3"
0"
b10 #
b10 L
b10 ;"
b0 %
b0 M
b0 :"
b1100 O
b1100 d
b1100 n
b1100 U
b1100 o
b1100 ("
b0 ,"
b1100 *"
b11 <"
07
b10 ?"
1*
#325
0*
#330
b0 3"
17
1$
b0 #
b0 L
b0 ;"
1"
b1111101011111010 %
b1111101011111010 M
b1111101011111010 :"
b1111101011111010 R
b1111101011111010 g
b1111101011111010 ~
b10 <"
b1100 O
b1100 d
b1100 n
b1100 U
b1100 o
b1100 ("
1*
#335
0*
#340
0"
b10 #
b10 L
b10 ;"
0$
b0 %
b0 M
b0 :"
b0 O
b0 d
b0 n
b0 U
b0 o
b0 ("
b0 <"
07
b11 ?"
1*
#345
0*
#350
bx R
bx g
bx ~
1*
